Summary of “Mastering Shiny” Chapter 4
…
The data can be loaded using the vroom package.

injuries <- vroom::vroom("neiss/injuries.tsv.gz")
injuries
#> # A tibble: 255,064 × 10
#>   trmt_date    age sex   race  body_part   diag    locat…¹ prod_…² weight narra…³
#>   <date>     <dbl> <chr> <chr> <chr>       <chr>   <chr>     <dbl>  <dbl> <chr>  
#> 1 2017-01-01    71 male  white Upper Trunk Contus… Other …    1807   77.7 71YOM …
#> 2 2017-01-01    16 male  white Lower Arm   Burns,… Home        676   77.7 16YOM …
#> 3 2017-01-01    58 male  white Upper Trunk Contus… Home        649   77.7 58 YOM…
#> 4 2017-01-01    21 male  white Lower Trunk Strain… Home       4076   77.7 21 YOM…
#> 5 2017-01-01    54 male  white Head        Inter … Other …    1807   77.7 54 YOM…
#> 6 2017-01-01    21 male  white Hand        Fractu… Home       1884   77.7 21 YOM…
#> # … with 255,058 more rows, and abbreviated variable names ¹location,
#> #   ²prod_code, ³narrative
products <- vroom::vroom("neiss/products.tsv")
products
#> # A tibble: 38 × 2
#>   prod_code title                            
#>       <dbl> <chr>                            
#> 1       464 knives, not elsewhere classified 
#> 2       474 tableware and accessories        
#> 3       604 desks, chests, bureaus or buffets
#> 4       611 bathtubs or showers              
#> 5       649 toilets                          
#> 6       676 rugs or carpets, not specified   
#> # … with 32 more rows

population <- vroom::vroom("neiss/population.tsv")
population
#> # A tibble: 170 × 3
#>     age sex    population
#>   <dbl> <chr>       <dbl>
#> 1     0 female    1924145
#> 2     0 male      2015150
#> 3     1 female    1943534
#> 4     1 male      2031718
#> 5     2 female    1965150
#> 6     2 male      2056625
#> # … with 164 more rows

If we focus on injuries involving toilets we can see that there are 2993 recorded injuries.

selected <- injuries %>% filter(prod_code == 649)
nrow(selected)
#> [1] 2993

When plotting the distribution of these injuries by age and sex one see a specific trend:

summary <- selected %>% 
  count(age, sex, wt = weight)
summary
#> # A tibble: 208 × 3
#>     age sex         n
#>   <dbl> <chr>   <dbl>
#> 1     0 female   4.76
#> 2     0 male    14.3 
#> 3     1 female 253.  
#> 4     1 male   231.  
#> 5     2 female 438.  
#> 6     2 male   632.  
#> # … with 202 more rows
…
One problem with interpreting this pattern is that we know that there are fewer older people than younger people, so the population available to be injured is smaller. We can control for this by comparing the number of people injured with the total population and calculating an injury rate. Here I use a rate per 10,000.

summary <- selected %>% 
  count(age, sex, wt = weight) %>% 
  left_join(population, by = c("age", "sex")) %>% 
  mutate(rate = n / population * 1e4)

summary
#> # A tibble: 208 × 5
#>     age sex         n population   rate
#>   <dbl> <chr>   <dbl>      <dbl>  <dbl>
#> 1     0 female   4.76    1924145 0.0247
#> 2     0 male    14.3     2015150 0.0708
#> 3     1 female 253.      1943534 1.30  
#> 4     1 male   231.      2031718 1.14  
#> 5     2 female 438.      1965150 2.23  
#> 6     2 male   632.      2056625 3.07  
#> # … with 202 more rows
…
